%YAML 1.1
%TAG !u! tag:unity3d.com,2011:
--- !u!29 &1
OcclusionCullingSettings:
  m_ObjectHideFlags: 0
  serializedVersion: 2
  m_OcclusionBakeSettings:
    smallestOccluder: 5
    smallestHole: 0.25
    backfaceThreshold: 100
  m_SceneGUID: 00000000000000000000000000000000
  m_OcclusionCullingData: {fileID: 0}
--- !u!104 &2
RenderSettings:
  m_ObjectHideFlags: 0
  serializedVersion: 9
  m_Fog: 0
  m_FogColor: {r: 0.5, g: 0.5, b: 0.5, a: 1}
  m_FogMode: 3
  m_FogDensity: 0.01
  m_LinearFogStart: 0
  m_LinearFogEnd: 300
  m_AmbientSkyColor: {r: 0.212, g: 0.227, b: 0.259, a: 1}
  m_AmbientEquatorColor: {r: 0.114, g: 0.125, b: 0.133, a: 1}
  m_AmbientGroundColor: {r: 0.047, g: 0.043, b: 0.035, a: 1}
  m_AmbientIntensity: 1
  m_AmbientMode: 0
  m_SubtractiveShadowColor: {r: 0.42, g: 0.478, b: 0.627, a: 1}
  m_SkyboxMaterial: {fileID: 10304, guid: 0000000000000000f000000000000000, type: 0}
  m_HaloStrength: 0.5
  m_FlareStrength: 1
  m_FlareFadeSpeed: 3
  m_HaloTexture: {fileID: 0}
  m_SpotCookie: {fileID: 10001, guid: 0000000000000000e000000000000000, type: 0}
  m_DefaultReflectionMode: 0
  m_DefaultReflectionResolution: 128
  m_ReflectionBounces: 1
  m_ReflectionIntensity: 1
  m_CustomReflection: {fileID: 0}
  m_Sun: {fileID: 705507994}
  m_IndirectSpecularColor: {r: 0.44657898, g: 0.4964133, b: 0.5748178, a: 1}
  m_UseRadianceAmbientProbe: 0
--- !u!157 &3
LightmapSettings:
  m_ObjectHideFlags: 0
  serializedVersion: 11
  m_GIWorkflowMode: 0
  m_GISettings:
    serializedVersion: 2
    m_BounceScale: 1
    m_IndirectOutputScale: 1
    m_AlbedoBoost: 1
    m_EnvironmentLightingMode: 0
    m_EnableBakedLightmaps: 1
    m_EnableRealtimeLightmaps: 0
  m_LightmapEditorSettings:
    serializedVersion: 12
    m_Resolution: 2
    m_BakeResolution: 40
    m_AtlasSize: 1024
    m_AO: 0
    m_AOMaxDistance: 1
    m_CompAOExponent: 1
    m_CompAOExponentDirect: 0
    m_ExtractAmbientOcclusion: 0
    m_Padding: 2
    m_LightmapParameters: {fileID: 0}
    m_LightmapsBakeMode: 1
    m_TextureCompression: 1
    m_FinalGather: 0
    m_FinalGatherFiltering: 1
    m_FinalGatherRayCount: 256
    m_ReflectionCompression: 2
    m_MixedBakeMode: 2
    m_BakeBackend: 1
    m_PVRSampling: 1
    m_PVRDirectSampleCount: 32
    m_PVRSampleCount: 500
    m_PVRBounces: 2
    m_PVREnvironmentSampleCount: 500
    m_PVREnvironmentReferencePointCount: 2048
    m_PVRFilteringMode: 2
    m_PVRDenoiserTypeDirect: 0
    m_PVRDenoiserTypeIndirect: 0
    m_PVRDenoiserTypeAO: 0
    m_PVRFilterTypeDirect: 0
    m_PVRFilterTypeIndirect: 0
    m_PVRFilterTypeAO: 0
    m_PVREnvironmentMIS: 0
    m_PVRCulling: 1
    m_PVRFilteringGaussRadiusDirect: 1
    m_PVRFilteringGaussRadiusIndirect: 5
    m_PVRFilteringGaussRadiusAO: 2
    m_PVRFilteringAtrousPositionSigmaDirect: 0.5
    m_PVRFilteringAtrousPositionSigmaIndirect: 2
    m_PVRFilteringAtrousPositionSigmaAO: 1
    m_ExportTrainingData: 0
    m_TrainingDataDestination: TrainingData
    m_LightProbeSampleCountMultiplier: 4
  m_LightingDataAsset: {fileID: 0}
  m_UseShadowmask: 1
--- !u!196 &4
NavMeshSettings:
  serializedVersion: 2
  m_ObjectHideFlags: 0
  m_BuildSettings:
    serializedVersion: 2
    agentTypeID: 0
    agentRadius: 0.5
    agentHeight: 2
    agentSlope: 45
    agentClimb: 0.4
    ledgeDropHeight: 0
    maxJumpAcrossDistance: 0
    minRegionArea: 2
    manualCellSize: 0
    cellSize: 0.16666667
    manualTileSize: 0
    tileSize: 256
    accuratePlacement: 0
    debug:
      m_Flags: 0
  m_NavMeshData: {fileID: 0}
--- !u!1 &401960118 stripped
GameObject:
  m_CorrespondingSourceObject: {fileID: 401960118, guid: 119367e026f2663458a97b9aed4cc05a,
    type: 3}
  m_PrefabInstance: {fileID: 4005433880115056222}
  m_PrefabAsset: {fileID: 0}
--- !u!4 &425734920 stripped
Transform:
  m_CorrespondingSourceObject: {fileID: 4005433879747995913, guid: 119367e026f2663458a97b9aed4cc05a,
    type: 3}
  m_PrefabInstance: {fileID: 1542426472}
  m_PrefabAsset: {fileID: 0}
--- !u!1 &427150913 stripped
GameObject:
  m_CorrespondingSourceObject: {fileID: 7037228518916242199, guid: 67b1725d64ebe4145bd684fb027414ae,
    type: 3}
  m_PrefabInstance: {fileID: 7037228518496138582}
  m_PrefabAsset: {fileID: 0}
--- !u!114 &427150914
MonoBehaviour:
  m_ObjectHideFlags: 0
  m_CorrespondingSourceObject: {fileID: 0}
  m_PrefabInstance: {fileID: 0}
  m_PrefabAsset: {fileID: 0}
  m_GameObject: {fileID: 427150913}
  m_Enabled: 1
  m_EditorHideFlags: 0
  m_Script: {fileID: 11500000, guid: 73315ae510c281a448794fc53718e1e6, type: 3}
  m_Name: 
  m_EditorClassIdentifier: 
  myAllegiance: 0
--- !u!1 &587131198
GameObject:
  m_ObjectHideFlags: 0
  m_CorrespondingSourceObject: {fileID: 0}
  m_PrefabInstance: {fileID: 0}
  m_PrefabAsset: {fileID: 0}
  serializedVersion: 6
  m_Component:
  - component: {fileID: 587131199}
  m_Layer: 0
  m_Name: Enemy
  m_TagString: Untagged
  m_Icon: {fileID: 0}
  m_NavMeshLayer: 0
  m_StaticEditorFlags: 0
  m_IsActive: 1
--- !u!4 &587131199
Transform:
  m_ObjectHideFlags: 0
  m_CorrespondingSourceObject: {fileID: 0}
  m_PrefabInstance: {fileID: 0}
  m_PrefabAsset: {fileID: 0}
  m_GameObject: {fileID: 587131198}
  m_LocalRotation: {x: 0, y: 0, z: 0, w: 1}
  m_LocalPosition: {x: -9.30281, y: -7.590665, z: 13.662708}
  m_LocalScale: {x: 1, y: 1, z: 1}
  m_Children:
  - {fileID: 2129647440}
  m_Father: {fileID: 0}
  m_RootOrder: 5
  m_LocalEulerAnglesHint: {x: 0, y: 0, z: 0}
--- !u!1 &705507993
GameObject:
  m_ObjectHideFlags: 0
  m_CorrespondingSourceObject: {fileID: 0}
  m_PrefabInstance: {fileID: 0}
  m_PrefabAsset: {fileID: 0}
  serializedVersion: 6
  m_Component:
  - component: {fileID: 705507995}
  - component: {fileID: 705507994}
  m_Layer: 0
  m_Name: Directional Light
  m_TagString: Untagged
  m_Icon: {fileID: 0}
  m_NavMeshLayer: 0
  m_StaticEditorFlags: 0
  m_IsActive: 1
--- !u!108 &705507994
Light:
  m_ObjectHideFlags: 0
  m_CorrespondingSourceObject: {fileID: 0}
  m_PrefabInstance: {fileID: 0}
  m_PrefabAsset: {fileID: 0}
  m_GameObject: {fileID: 705507993}
  m_Enabled: 1
  serializedVersion: 10
  m_Type: 1
  m_Shape: 0
  m_Color: {r: 1, g: 0.95686275, b: 0.8392157, a: 1}
  m_Intensity: 1
  m_Range: 10
  m_SpotAngle: 30
  m_InnerSpotAngle: 21.80208
  m_CookieSize: 10
  m_Shadows:
    m_Type: 2
    m_Resolution: -1
    m_CustomResolution: -1
    m_Strength: 1
    m_Bias: 0.05
    m_NormalBias: 0.4
    m_NearPlane: 0.2
    m_CullingMatrixOverride:
      e00: 1
      e01: 0
      e02: 0
      e03: 0
      e10: 0
      e11: 1
      e12: 0
      e13: 0
      e20: 0
      e21: 0
      e22: 1
      e23: 0
      e30: 0
      e31: 0
      e32: 0
      e33: 1
    m_UseCullingMatrixOverride: 0
  m_Cookie: {fileID: 0}
  m_DrawHalo: 0
  m_Flare: {fileID: 0}
  m_RenderMode: 0
  m_CullingMask:
    serializedVersion: 2
    m_Bits: 4294967295
  m_RenderingLayerMask: 1
  m_Lightmapping: 1
  m_LightShadowCasterMode: 0
  m_AreaSize: {x: 1, y: 1}
  m_BounceIntensity: 1
  m_ColorTemperature: 6570
  m_UseColorTemperature: 0
  m_BoundingSphereOverride: {x: 0, y: 0, z: 0, w: 0}
  m_UseBoundingSphereOverride: 0
  m_ShadowRadius: 0
  m_ShadowAngle: 0
--- !u!4 &705507995
Transform:
  m_ObjectHideFlags: 0
  m_CorrespondingSourceObject: {fileID: 0}
  m_PrefabInstance: {fileID: 0}
  m_PrefabAsset: {fileID: 0}
  m_GameObject: {fileID: 705507993}
  m_LocalRotation: {x: 0.40821788, y: -0.23456968, z: 0.10938163, w: 0.8754261}
  m_LocalPosition: {x: 0, y: 3, z: 0}
  m_LocalScale: {x: 1, y: 1, z: 1}
  m_Children: []
  m_Father: {fileID: 0}
  m_RootOrder: 1
  m_LocalEulerAnglesHint: {x: 50, y: -30, z: 0}
--- !u!1 &963194225
GameObject:
  m_ObjectHideFlags: 0
  m_CorrespondingSourceObject: {fileID: 0}
  m_PrefabInstance: {fileID: 0}
  m_PrefabAsset: {fileID: 0}
  serializedVersion: 6
  m_Component:
  - component: {fileID: 963194228}
  - component: {fileID: 963194227}
  - component: {fileID: 963194226}
  m_Layer: 0
  m_Name: Main Camera
  m_TagString: MainCamera
  m_Icon: {fileID: 0}
  m_NavMeshLayer: 0
  m_StaticEditorFlags: 0
  m_IsActive: 1
--- !u!81 &963194226
AudioListener:
  m_ObjectHideFlags: 0
  m_CorrespondingSourceObject: {fileID: 0}
  m_PrefabInstance: {fileID: 0}
  m_PrefabAsset: {fileID: 0}
  m_GameObject: {fileID: 963194225}
  m_Enabled: 1
--- !u!20 &963194227
Camera:
  m_ObjectHideFlags: 0
  m_CorrespondingSourceObject: {fileID: 0}
  m_PrefabInstance: {fileID: 0}
  m_PrefabAsset: {fileID: 0}
  m_GameObject: {fileID: 963194225}
  m_Enabled: 1
  serializedVersion: 2
  m_ClearFlags: 1
  m_BackGroundColor: {r: 0.19215687, g: 0.3019608, b: 0.4745098, a: 0}
  m_projectionMatrixMode: 1
  m_GateFitMode: 2
  m_FOVAxisMode: 0
  m_SensorSize: {x: 36, y: 24}
  m_LensShift: {x: 0, y: 0}
  m_FocalLength: 50
  m_NormalizedViewPortRect:
    serializedVersion: 2
    x: 0
    y: 0
    width: 1
    height: 1
  near clip plane: 0.3
  far clip plane: 1000
  field of view: 60
  orthographic: 0
  orthographic size: 5
  m_Depth: -1
  m_CullingMask:
    serializedVersion: 2
    m_Bits: 4294967295
  m_RenderingPath: -1
  m_TargetTexture: {fileID: 0}
  m_TargetDisplay: 0
  m_TargetEye: 3
  m_HDR: 1
  m_AllowMSAA: 1
  m_AllowDynamicResolution: 0
  m_ForceIntoRT: 0
  m_OcclusionCulling: 1
  m_StereoConvergence: 10
  m_StereoSeparation: 0.022
--- !u!4 &963194228
Transform:
  m_ObjectHideFlags: 0
  m_CorrespondingSourceObject: {fileID: 0}
  m_PrefabInstance: {fileID: 0}
  m_PrefabAsset: {fileID: 0}
  m_GameObject: {fileID: 963194225}
  m_LocalRotation: {x: 0, y: 0, z: 0, w: 1}
  m_LocalPosition: {x: 0, y: 1, z: -10}
  m_LocalScale: {x: 1, y: 1, z: 1}
  m_Children: []
  m_Father: {fileID: 0}
  m_RootOrder: 0
  m_LocalEulerAnglesHint: {x: 0, y: 0, z: 0}
--- !u!114 &1042491226 stripped
MonoBehaviour:
  m_CorrespondingSourceObject: {fileID: 6731770574704972973, guid: 119367e026f2663458a97b9aed4cc05a,
    type: 3}
  m_PrefabInstance: {fileID: 4005433880115056222}
  m_PrefabAsset: {fileID: 0}
  m_GameObject: {fileID: 0}
  m_Enabled: 1
  m_EditorHideFlags: 0
  m_Script: {fileID: 11500000, guid: 73315ae510c281a448794fc53718e1e6, type: 3}
  m_Name: 
  m_EditorClassIdentifier: 
--- !u!1 &1141396268
GameObject:
  m_ObjectHideFlags: 0
  m_CorrespondingSourceObject: {fileID: 0}
  m_PrefabInstance: {fileID: 0}
  m_PrefabAsset: {fileID: 0}
  serializedVersion: 6
  m_Component:
  - component: {fileID: 1141396269}
  m_Layer: 0
  m_Name: Ally
  m_TagString: Untagged
  m_Icon: {fileID: 0}
  m_NavMeshLayer: 0
  m_StaticEditorFlags: 0
  m_IsActive: 1
--- !u!4 &1141396269
Transform:
  m_ObjectHideFlags: 0
  m_CorrespondingSourceObject: {fileID: 0}
  m_PrefabInstance: {fileID: 0}
  m_PrefabAsset: {fileID: 0}
  m_GameObject: {fileID: 1141396268}
  m_LocalRotation: {x: 0, y: 0, z: 0, w: 1}
  m_LocalPosition: {x: -9.30281, y: -7.590665, z: 13.662708}
  m_LocalScale: {x: 1, y: 1, z: 1}
  m_Children:
  - {fileID: 425734920}
  m_Father: {fileID: 0}
  m_RootOrder: 6
  m_LocalEulerAnglesHint: {x: 0, y: 0, z: 0}
--- !u!1 &1430660927
GameObject:
  m_ObjectHideFlags: 0
  m_CorrespondingSourceObject: {fileID: 0}
  m_PrefabInstance: {fileID: 0}
  m_PrefabAsset: {fileID: 0}
  serializedVersion: 6
  m_Component:
  - component: {fileID: 1430660931}
  - component: {fileID: 1430660930}
  - component: {fileID: 1430660929}
  - component: {fileID: 1430660928}
  m_Layer: 0
  m_Name: Ground
  m_TagString: Untagged
  m_Icon: {fileID: 0}
  m_NavMeshLayer: 0
  m_StaticEditorFlags: 0
  m_IsActive: 1
--- !u!65 &1430660928
BoxCollider:
  m_ObjectHideFlags: 0
  m_CorrespondingSourceObject: {fileID: 0}
  m_PrefabInstance: {fileID: 0}
  m_PrefabAsset: {fileID: 0}
  m_GameObject: {fileID: 1430660927}
  m_Material: {fileID: 0}
  m_IsTrigger: 0
  m_Enabled: 1
  serializedVersion: 2
  m_Size: {x: 1, y: 1, z: 1}
  m_Center: {x: 0, y: 0, z: 0}
--- !u!23 &1430660929
MeshRenderer:
  m_ObjectHideFlags: 0
  m_CorrespondingSourceObject: {fileID: 0}
  m_PrefabInstance: {fileID: 0}
  m_PrefabAsset: {fileID: 0}
  m_GameObject: {fileID: 1430660927}
  m_Enabled: 1
  m_CastShadows: 1
  m_ReceiveShadows: 1
  m_DynamicOccludee: 1
  m_MotionVectors: 1
  m_LightProbeUsage: 1
  m_ReflectionProbeUsage: 1
  m_RayTracingMode: 2
  m_RenderingLayerMask: 1
  m_RendererPriority: 0
  m_Materials:
  - {fileID: 2100000, guid: 9c7be3902f960ed4fbef161765a45c73, type: 2}
  m_StaticBatchInfo:
    firstSubMesh: 0
    subMeshCount: 0
  m_StaticBatchRoot: {fileID: 0}
  m_ProbeAnchor: {fileID: 0}
  m_LightProbeVolumeOverride: {fileID: 0}
  m_ScaleInLightmap: 1
  m_ReceiveGI: 1
  m_PreserveUVs: 0
  m_IgnoreNormalsForChartDetection: 0
  m_ImportantGI: 0
  m_StitchLightmapSeams: 1
  m_SelectedEditorRenderState: 3
  m_MinimumChartSize: 4
  m_AutoUVMaxDistance: 0.5
  m_AutoUVMaxAngle: 89
  m_LightmapParameters: {fileID: 0}
  m_SortingLayerID: 0
  m_SortingLayer: 0
  m_SortingOrder: 0
--- !u!33 &1430660930
MeshFilter:
  m_ObjectHideFlags: 0
  m_CorrespondingSourceObject: {fileID: 0}
  m_PrefabInstance: {fileID: 0}
  m_PrefabAsset: {fileID: 0}
  m_GameObject: {fileID: 1430660927}
  m_Mesh: {fileID: 10202, guid: 0000000000000000e000000000000000, type: 0}
--- !u!4 &1430660931
Transform:
  m_ObjectHideFlags: 0
  m_CorrespondingSourceObject: {fileID: 0}
  m_PrefabInstance: {fileID: 0}
  m_PrefabAsset: {fileID: 0}
  m_GameObject: {fileID: 1430660927}
  m_LocalRotation: {x: 0, y: 0, z: 0, w: 1}
  m_LocalPosition: {x: 0, y: 0, z: 0}
  m_LocalScale: {x: 20, y: 0.1, z: 20}
  m_Children: []
  m_Father: {fileID: 0}
  m_RootOrder: 2
  m_LocalEulerAnglesHint: {x: 0, y: 0, z: 0}
--- !u!1001 &1542426472
PrefabInstance:
  m_ObjectHideFlags: 0
  serializedVersion: 2
  m_Modification:
    m_TransformParent: {fileID: 1141396269}
    m_Modifications:
    - target: {fileID: 4005433879747995913, guid: 119367e026f2663458a97b9aed4cc05a,
        type: 3}
      propertyPath: m_LocalPosition.x
      value: 9.71
      objectReference: {fileID: 0}
    - target: {fileID: 4005433879747995913, guid: 119367e026f2663458a97b9aed4cc05a,
        type: 3}
      propertyPath: m_LocalPosition.y
      value: 8.151
      objectReference: {fileID: 0}
    - target: {fileID: 4005433879747995913, guid: 119367e026f2663458a97b9aed4cc05a,
        type: 3}
      propertyPath: m_LocalPosition.z
      value: -12.35
      objectReference: {fileID: 0}
    - target: {fileID: 4005433879747995913, guid: 119367e026f2663458a97b9aed4cc05a,
        type: 3}
      propertyPath: m_LocalRotation.x
      value: -0
      objectReference: {fileID: 0}
    - target: {fileID: 4005433879747995913, guid: 119367e026f2663458a97b9aed4cc05a,
        type: 3}
      propertyPath: m_LocalRotation.y
      value: -0
      objectReference: {fileID: 0}
    - target: {fileID: 4005433879747995913, guid: 119367e026f2663458a97b9aed4cc05a,
        type: 3}
      propertyPath: m_LocalRotation.z
      value: -0
      objectReference: {fileID: 0}
    - target: {fileID: 4005433879747995913, guid: 119367e026f2663458a97b9aed4cc05a,
        type: 3}
      propertyPath: m_LocalRotation.w
      value: 1
      objectReference: {fileID: 0}
    - target: {fileID: 4005433879747995913, guid: 119367e026f2663458a97b9aed4cc05a,
        type: 3}
      propertyPath: m_RootOrder
      value: 0
      objectReference: {fileID: 0}
    - target: {fileID: 4005433879747995913, guid: 119367e026f2663458a97b9aed4cc05a,
        type: 3}
      propertyPath: m_LocalEulerAnglesHint.x
      value: 0
      objectReference: {fileID: 0}
    - target: {fileID: 4005433879747995913, guid: 119367e026f2663458a97b9aed4cc05a,
        type: 3}
      propertyPath: m_LocalEulerAnglesHint.y
      value: 0
      objectReference: {fileID: 0}
    - target: {fileID: 4005433879747995913, guid: 119367e026f2663458a97b9aed4cc05a,
        type: 3}
      propertyPath: m_LocalEulerAnglesHint.z
      value: 0
      objectReference: {fileID: 0}
    - target: {fileID: 4005433879747995917, guid: 119367e026f2663458a97b9aed4cc05a,
        type: 3}
      propertyPath: m_Name
      value: Ally Turret
      objectReference: {fileID: 0}
    m_RemovedComponents: []
  m_SourcePrefab: {fileID: 100100000, guid: 119367e026f2663458a97b9aed4cc05a, type: 3}
--- !u!4 &2129647440 stripped
Transform:
  m_CorrespondingSourceObject: {fileID: 4005433879747995913, guid: 119367e026f2663458a97b9aed4cc05a,
    type: 3}
  m_PrefabInstance: {fileID: 4005433880115056222}
  m_PrefabAsset: {fileID: 0}
--- !u!1001 &1337065528362744277
PrefabInstance:
  m_ObjectHideFlags: 0
  serializedVersion: 2
  m_Modification:
    m_TransformParent: {fileID: 0}
    m_Modifications:
    - target: {fileID: -5241112135811437493, guid: f1d85eb46e794c74389b5d0db63fc39e,
        type: 3}
      propertyPath: myHealth
      value: 100
      objectReference: {fileID: 0}
    - target: {fileID: 2005644491, guid: f1d85eb46e794c74389b5d0db63fc39e, type: 3}
      propertyPath: myAllegiance
      value: 0
      objectReference: {fileID: 0}
    - target: {fileID: 1337065529729387792, guid: f1d85eb46e794c74389b5d0db63fc39e,
        type: 3}
      propertyPath: m_Name
      value: AllYourBaseAreBelongToUs
      objectReference: {fileID: 0}
    - target: {fileID: 1337065529729387794, guid: f1d85eb46e794c74389b5d0db63fc39e,
        type: 3}
      propertyPath: m_DynamicOccludee
      value: 0
      objectReference: {fileID: 0}
    - target: {fileID: 1337065529729387804, guid: f1d85eb46e794c74389b5d0db63fc39e,
        type: 3}
      propertyPath: m_LocalPosition.x
      value: 11.32
      objectReference: {fileID: 0}
    - target: {fileID: 1337065529729387804, guid: f1d85eb46e794c74389b5d0db63fc39e,
        type: 3}
      propertyPath: m_LocalPosition.y
      value: 0.47
      objectReference: {fileID: 0}
    - target: {fileID: 1337065529729387804, guid: f1d85eb46e794c74389b5d0db63fc39e,
        type: 3}
      propertyPath: m_LocalPosition.z
      value: 11.47
      objectReference: {fileID: 0}
    - target: {fileID: 1337065529729387804, guid: f1d85eb46e794c74389b5d0db63fc39e,
        type: 3}
      propertyPath: m_LocalRotation.x
      value: 0
      objectReference: {fileID: 0}
    - target: {fileID: 1337065529729387804, guid: f1d85eb46e794c74389b5d0db63fc39e,
        type: 3}
      propertyPath: m_LocalRotation.y
      value: 0
      objectReference: {fileID: 0}
    - target: {fileID: 1337065529729387804, guid: f1d85eb46e794c74389b5d0db63fc39e,
        type: 3}
      propertyPath: m_LocalRotation.z
      value: 0
      objectReference: {fileID: 0}
    - target: {fileID: 1337065529729387804, guid: f1d85eb46e794c74389b5d0db63fc39e,
        type: 3}
      propertyPath: m_LocalRotation.w
      value: 1
      objectReference: {fileID: 0}
    - target: {fileID: 1337065529729387804, guid: f1d85eb46e794c74389b5d0db63fc39e,
        type: 3}
      propertyPath: m_RootOrder
      value: 4
      objectReference: {fileID: 0}
    - target: {fileID: 1337065529729387804, guid: f1d85eb46e794c74389b5d0db63fc39e,
        type: 3}
      propertyPath: m_LocalEulerAnglesHint.x
      value: 0
      objectReference: {fileID: 0}
    - target: {fileID: 1337065529729387804, guid: f1d85eb46e794c74389b5d0db63fc39e,
        type: 3}
      propertyPath: m_LocalEulerAnglesHint.y
      value: 0
      objectReference: {fileID: 0}
    - target: {fileID: 1337065529729387804, guid: f1d85eb46e794c74389b5d0db63fc39e,
        type: 3}
      propertyPath: m_LocalEulerAnglesHint.z
      value: 0
      objectReference: {fileID: 0}
    - target: {fileID: 2831296124849515196, guid: f1d85eb46e794c74389b5d0db63fc39e,
        type: 3}
      propertyPath: m_onWin.m_PersistentCalls.m_Calls.Array.size
      value: 0
      objectReference: {fileID: 0}
    - target: {fileID: 2831296124849515196, guid: f1d85eb46e794c74389b5d0db63fc39e,
        type: 3}
      propertyPath: m_onWin.m_PersistentCalls.m_Calls.Array.data[0].m_Mode
      value: 1
      objectReference: {fileID: 0}
    - target: {fileID: 2831296124849515196, guid: f1d85eb46e794c74389b5d0db63fc39e,
        type: 3}
      propertyPath: m_onWin.m_PersistentCalls.m_Calls.Array.data[0].m_CallState
      value: 2
      objectReference: {fileID: 0}
    - target: {fileID: 2831296124849515196, guid: f1d85eb46e794c74389b5d0db63fc39e,
        type: 3}
      propertyPath: armorToWin
      value: 0
      objectReference: {fileID: 0}
    - target: {fileID: 2831296124849515196, guid: f1d85eb46e794c74389b5d0db63fc39e,
        type: 3}
      propertyPath: m_onWin.m_PersistentCalls.m_Calls.Array.data[0].m_Target
      value: 
      objectReference: {fileID: 1337065528362744278}
    m_RemovedComponents: []
  m_SourcePrefab: {fileID: 100100000, guid: f1d85eb46e794c74389b5d0db63fc39e, type: 3}
--- !u!114 &1337065528362744278 stripped
MonoBehaviour:
  m_CorrespondingSourceObject: {fileID: 2831296124849515196, guid: f1d85eb46e794c74389b5d0db63fc39e,
    type: 3}
  m_PrefabInstance: {fileID: 1337065528362744277}
  m_PrefabAsset: {fileID: 0}
  m_GameObject: {fileID: 0}
  m_Enabled: 1
  m_EditorHideFlags: 0
  m_Script: {fileID: 11500000, guid: 530cdbcec919f8344b363e5586901904, type: 3}
  m_Name: 
  m_EditorClassIdentifier: 
--- !u!1001 &4005433880115056222
PrefabInstance:
  m_ObjectHideFlags: 0
  serializedVersion: 2
  m_Modification:
    m_TransformParent: {fileID: 587131199}
    m_Modifications:
    - target: {fileID: 1042491225, guid: 119367e026f2663458a97b9aed4cc05a, type: 3}
      propertyPath: m_UseGravity
      value: 0
      objectReference: {fileID: 0}
    - target: {fileID: 3807234948298729659, guid: 119367e026f2663458a97b9aed4cc05a,
        type: 3}
      propertyPath: myHealth
      value: 50
      objectReference: {fileID: 0}
    - target: {fileID: 4005433879747995913, guid: 119367e026f2663458a97b9aed4cc05a,
        type: 3}
      propertyPath: m_LocalPosition.x
      value: 12.21281
      objectReference: {fileID: 0}
    - target: {fileID: 4005433879747995913, guid: 119367e026f2663458a97b9aed4cc05a,
        type: 3}
      propertyPath: m_LocalPosition.y
      value: 8.040665
      objectReference: {fileID: 0}
    - target: {fileID: 4005433879747995913, guid: 119367e026f2663458a97b9aed4cc05a,
        type: 3}
      propertyPath: m_LocalPosition.z
      value: -16.582708
      objectReference: {fileID: 0}
    - target: {fileID: 4005433879747995913, guid: 119367e026f2663458a97b9aed4cc05a,
        type: 3}
      propertyPath: m_LocalRotation.x
      value: -0
      objectReference: {fileID: 0}
    - target: {fileID: 4005433879747995913, guid: 119367e026f2663458a97b9aed4cc05a,
        type: 3}
      propertyPath: m_LocalRotation.y
      value: -0
      objectReference: {fileID: 0}
    - target: {fileID: 4005433879747995913, guid: 119367e026f2663458a97b9aed4cc05a,
        type: 3}
      propertyPath: m_LocalRotation.z
      value: -0
      objectReference: {fileID: 0}
    - target: {fileID: 4005433879747995913, guid: 119367e026f2663458a97b9aed4cc05a,
        type: 3}
      propertyPath: m_LocalRotation.w
      value: 1
      objectReference: {fileID: 0}
    - target: {fileID: 4005433879747995913, guid: 119367e026f2663458a97b9aed4cc05a,
        type: 3}
      propertyPath: m_RootOrder
      value: 0
      objectReference: {fileID: 0}
    - target: {fileID: 4005433879747995913, guid: 119367e026f2663458a97b9aed4cc05a,
        type: 3}
      propertyPath: m_LocalEulerAnglesHint.x
      value: 0
      objectReference: {fileID: 0}
    - target: {fileID: 4005433879747995913, guid: 119367e026f2663458a97b9aed4cc05a,
        type: 3}
      propertyPath: m_LocalEulerAnglesHint.y
      value: 0
      objectReference: {fileID: 0}
    - target: {fileID: 4005433879747995913, guid: 119367e026f2663458a97b9aed4cc05a,
        type: 3}
      propertyPath: m_LocalEulerAnglesHint.z
      value: 0
      objectReference: {fileID: 0}
    - target: {fileID: 4005433879747995914, guid: 119367e026f2663458a97b9aed4cc05a,
        type: 3}
      propertyPath: m_Size.x
      value: 1
      objectReference: {fileID: 0}
    - target: {fileID: 4005433879747995914, guid: 119367e026f2663458a97b9aed4cc05a,
        type: 3}
      propertyPath: m_Size.y
      value: 1
      objectReference: {fileID: 0}
    - target: {fileID: 4005433879747995914, guid: 119367e026f2663458a97b9aed4cc05a,
        type: 3}
      propertyPath: m_Size.z
      value: 1
      objectReference: {fileID: 0}
    - target: {fileID: 4005433879747995917, guid: 119367e026f2663458a97b9aed4cc05a,
        type: 3}
      propertyPath: m_Name
      value: Enemy Turret
      objectReference: {fileID: 0}
    - target: {fileID: 4177106215635175172, guid: 119367e026f2663458a97b9aed4cc05a,
        type: 3}
      propertyPath: m_alligance
      value: 
      objectReference: {fileID: 1042491226}
    - target: {fileID: 4177106215635175172, guid: 119367e026f2663458a97b9aed4cc05a,
        type: 3}
      propertyPath: ammoPrefab
      value: 
      objectReference: {fileID: 6828183564941697740, guid: 0db8b69559bae3c47b1147202a778a1b,
        type: 3}
    - target: {fileID: 4177106215635175172, guid: 119367e026f2663458a97b9aed4cc05a,
        type: 3}
      propertyPath: cannonPivot
      value: 
      objectReference: {fileID: 401960118}
    - target: {fileID: 4177106215635175172, guid: 119367e026f2663458a97b9aed4cc05a,
        type: 3}
      propertyPath: m_minRangeToFire
      value: 20
      objectReference: {fileID: 0}
    - target: {fileID: 4177106215635175172, guid: 119367e026f2663458a97b9aed4cc05a,
        type: 3}
      propertyPath: m_maxRangeToFire
      value: 5
      objectReference: {fileID: 0}
    - target: {fileID: 6731770574704972973, guid: 119367e026f2663458a97b9aed4cc05a,
        type: 3}
      propertyPath: myAllegiance
      value: 1
      objectReference: {fileID: 0}
    m_RemovedComponents: []
  m_SourcePrefab: {fileID: 100100000, guid: 119367e026f2663458a97b9aed4cc05a, type: 3}
--- !u!1001 &7037228518496138582
PrefabInstance:
  m_ObjectHideFlags: 0
  serializedVersion: 2
  m_Modification:
    m_TransformParent: {fileID: 0}
    m_Modifications:
    - target: {fileID: 257007723857880823, guid: 67b1725d64ebe4145bd684fb027414ae,
        type: 3}
      propertyPath: m_onDeath.m_PersistentCalls.m_Calls.Array.size
      value: 1
      objectReference: {fileID: 0}
    - target: {fileID: 257007723857880823, guid: 67b1725d64ebe4145bd684fb027414ae,
        type: 3}
      propertyPath: m_onDeath.m_PersistentCalls.m_Calls.Array.data[0].m_Mode
      value: 6
      objectReference: {fileID: 0}
    - target: {fileID: 257007723857880823, guid: 67b1725d64ebe4145bd684fb027414ae,
        type: 3}
      propertyPath: m_onDeath.m_PersistentCalls.m_Calls.Array.data[0].m_CallState
      value: 2
      objectReference: {fileID: 0}
    - target: {fileID: 257007723857880823, guid: 67b1725d64ebe4145bd684fb027414ae,
        type: 3}
      propertyPath: m_onDeath.m_PersistentCalls.m_Calls.Array.data[0].m_Target
      value: 
      objectReference: {fileID: 427150913}
    - target: {fileID: 257007723857880823, guid: 67b1725d64ebe4145bd684fb027414ae,
        type: 3}
      propertyPath: m_onDeath.m_PersistentCalls.m_Calls.Array.data[0].m_MethodName
      value: SetActive
      objectReference: {fileID: 0}
    - target: {fileID: 257007723857880823, guid: 67b1725d64ebe4145bd684fb027414ae,
        type: 3}
      propertyPath: m_onDeath.m_PersistentCalls.m_Calls.Array.data[0].m_Arguments.m_ObjectArgumentAssemblyTypeName
      value: UnityEngine.Object, UnityEngine
      objectReference: {fileID: 0}
    - target: {fileID: 7037228518916242195, guid: 67b1725d64ebe4145bd684fb027414ae,
        type: 3}
      propertyPath: m_LocalPosition.x
      value: 1.71
      objectReference: {fileID: 0}
    - target: {fileID: 7037228518916242195, guid: 67b1725d64ebe4145bd684fb027414ae,
        type: 3}
      propertyPath: m_LocalPosition.y
      value: 0.72
      objectReference: {fileID: 0}
    - target: {fileID: 7037228518916242195, guid: 67b1725d64ebe4145bd684fb027414ae,
        type: 3}
      propertyPath: m_LocalPosition.z
      value: 6.2
      objectReference: {fileID: 0}
    - target: {fileID: 7037228518916242195, guid: 67b1725d64ebe4145bd684fb027414ae,
        type: 3}
      propertyPath: m_LocalRotation.x
      value: 0
      objectReference: {fileID: 0}
    - target: {fileID: 7037228518916242195, guid: 67b1725d64ebe4145bd684fb027414ae,
        type: 3}
      propertyPath: m_LocalRotation.y
      value: 0
      objectReference: {fileID: 0}
    - target: {fileID: 7037228518916242195, guid: 67b1725d64ebe4145bd684fb027414ae,
        type: 3}
      propertyPath: m_LocalRotation.z
      value: 0
      objectReference: {fileID: 0}
    - target: {fileID: 7037228518916242195, guid: 67b1725d64ebe4145bd684fb027414ae,
        type: 3}
      propertyPath: m_LocalRotation.w
      value: 1
      objectReference: {fileID: 0}
    - target: {fileID: 7037228518916242195, guid: 67b1725d64ebe4145bd684fb027414ae,
        type: 3}
      propertyPath: m_RootOrder
      value: 3
      objectReference: {fileID: 0}
    - target: {fileID: 7037228518916242195, guid: 67b1725d64ebe4145bd684fb027414ae,
        type: 3}
      propertyPath: m_LocalEulerAnglesHint.x
      value: 0
      objectReference: {fileID: 0}
    - target: {fileID: 7037228518916242195, guid: 67b1725d64ebe4145bd684fb027414ae,
        type: 3}
      propertyPath: m_LocalEulerAnglesHint.y
      value: 0
      objectReference: {fileID: 0}
    - target: {fileID: 7037228518916242195, guid: 67b1725d64ebe4145bd684fb027414ae,
        type: 3}
      propertyPath: m_LocalEulerAnglesHint.z
      value: 0
      objectReference: {fileID: 0}
    - target: {fileID: 7037228518916242196, guid: 67b1725d64ebe4145bd684fb027414ae,
        type: 3}
      propertyPath: m_IsTrigger
      value: 1
      objectReference: {fileID: 0}
    - target: {fileID: 7037228518916242199, guid: 67b1725d64ebe4145bd684fb027414ae,
        type: 3}
      propertyPath: m_Name
      value: Turret
      objectReference: {fileID: 0}
    - target: {fileID: 7037228518916242199, guid: 67b1725d64ebe4145bd684fb027414ae,
        type: 3}
      propertyPath: m_IsActive
      value: 0
      objectReference: {fileID: 0}
    m_RemovedComponents:
    - {fileID: 1395243396, guid: 67b1725d64ebe4145bd684fb027414ae, type: 3}
  m_SourcePrefab: {fileID: 100100000, guid: 67b1725d64ebe4145bd684fb027414ae, type: 3}
